epwave_waveform.vcd
$date
     Feb 04, 2025       18:23:19
$end

$version
 SystemC 2.3.4-Accellera --- Dec  4 2024 11:52:05
$end

$timescale
     1 ns
$end

$scope module SystemC $end
$var wire    1  aaaaa  Clock       $end
$var wire    1  aaaab  Pulse_Output       $end
$upscope $end
$enddefinitions  $end

$comment
All initial values are dumped below at time 0 sec = 0 timescale units.
$end

$dumpvars
1aaaaa
0aaaab
$end

#2
0aaaaa

#4
1aaaaa

#8
1aaaab

#12
0aaaaa

#14
1aaaaa

#18
0aaaab

#22
0aaaaa

#24
1aaaaa

#28
1aaaab

#32
0aaaaa

#34
1aaaaa

#38
0aaaab

#42
0aaaaa

#44
1aaaaa

#48
1aaaab

#52
0aaaaa

#54
1aaaaa

#58
0aaaab

#62
0aaaaa

#64
1aaaaa

#68
1aaaab

#72
0aaaaa

#74
1aaaaa

#78
0aaaab

#82
0aaaaa

#84
1aaaaa

#88
1aaaab

#92
0aaaaa

#94
1aaaaa

#98
0aaaab

#102
0aaaaa

#104
1aaaaa

#108
1aaaab

#112
0aaaaa

#114
1aaaaa

#118
0aaaab

#122
0aaaaa

#124
1aaaaa

#128
1aaaab

#132
0aaaaa

#134
1aaaaa

#138
0aaaab

#142
0aaaaa

#144
1aaaaa

#148
1aaaab

#152
0aaaaa

#154
1aaaaa

#158
0aaaab

#162
0aaaaa

#164
1aaaaa

#168
1aaaab

#172
0aaaaa

#174
1aaaaa

#178
0aaaab

#182
0aaaaa

#184
1aaaaa

#188
1aaaab

#192
0aaaaa

#194
1aaaaa

#198
0aaaab

